<?xml version="1.0"?>
<robot xmlns:xacro="http://www.ros.org/wiki/xacro" name="object_1">

  <link name="world_2"/>

    <link name="object_2">
      <visual>
        <geometry>
	  <mesh filename="package://vehtek_laser_cell/models/meshes/EOAT_degraded.stl" />
        </geometry>
        <material name="grey">
          <color rgba="0.5 0.5 0.5 1"/>
        </material>
        <origin rpy="0 0 0" xyz="0 0 0"/>
      </visual>
      <collision>
        <geometry>
	  <mesh filename="package://vehtek_laser_cell/models/meshes/EOAT_degraded.stl" />
        </geometry>
</collision>
      
      <inertial>
        <mass value="1"/>
        <inertia ixx="1" ixy="0.0" ixz="0.0" iyy="1" iyz="0.0" izz="1"/>
      </inertial>
    </link>


  <joint name="world_object_2" type="fixed">
    <parent link="world_2"/>
    <child link="object_2"/>
     <origin rpy="0.0 0 0.0" xyz="0.0 0.0 0.0"/>
  </joint>

</robot>
